{
  "app": {
    "bundleName": "com.artcool.first",
    "vendor": "artcool",
    "version": {
      "code": 1000000,
      "name": "1.0.0"
    }
  },
  "deviceConfig": {},
  "module": {
    "package": "com.artcool.first",
    "name": ".MyApplication",
    "mainAbility": "com.artcool.first.MainAbility",
    "deviceType": [
      "phone"
    ],
    "distro": {
      "deliveryWithInstall": true,
      "moduleName": "entry",
      "moduleType": "entry",
      "installationFree": false
    },
    "abilities": [
      {
        "skills": [
          {
            "entities": [
              "entity.system.home"
            ],
            "actions": [
              "action.system.home"
            ]
          }
        ],
        "orientation": "unspecified",
        "name": "com.artcool.first.MainAbility",
        "icon": "$media:icon",
        "description": "$string:mainability_description",
        "formsEnabled": true,
        "label": "$string:entry_MainAbility",
        "type": "page",
        "forms": [
          {
            "landscapeLayouts": [
              "$layout:form_image_with_information_widget_2_2"
            ],
            "isDefault": true,
            "scheduledUpdateTime": "10:30",
            "defaultDimension": "2*2",
            "name": "widget",
            "description": "This is a service widget",
            "colorMode": "auto",
            "type": "Java",
            "supportDimensions": [
              "2*2"
            ],
            "portraitLayouts": [
              "$layout:form_image_with_information_widget_2_2"
            ],
            "updateEnabled": true,
            "updateDuration": 1
          }
        ],
        "launchType": "standard"
      },
      {
        "orientation": "unspecified",
        "name": "com.artcool.first.component.tablist.TabListAbility",
        "icon": "$media:icon",
        "description": "$string:tablistability_description",
        "label": "$string:entry_TabListAbility",
        "type": "page",
        "launchType": "standard"
      },
      {
        "orientation": "unspecified",
        "name": "com.artcool.first.component.listcontainer.ListContainerAbility",
        "icon": "$media:icon",
        "description": "$string:listcontainerability_description",
        "label": "$string:entry_ListContainerAbility",
        "type": "page",
        "launchType": "standard"
      },
      {
        "orientation": "unspecified",
        "name": "com.artcool.first.component.radiocontainer.RadioContainerAbility",
        "icon": "$media:icon",
        "description": "$string:radiocontainerability_description",
        "label": "$string:entry_RadioContainerAbility",
        "type": "page",
        "launchType": "standard"
      },
      {
        "orientation": "unspecified",
        "name": "com.artcool.first.component.checkbox.CheckBoxAbility",
        "icon": "$media:icon",
        "description": "$string:checkboxability_description",
        "label": "$string:entry_CheckBoxAbility",
        "type": "page",
        "launchType": "standard"
      },
      {
        "orientation": "unspecified",
        "name": "com.artcool.first.component.DatePicker.DatePickerAbility",
        "icon": "$media:icon",
        "description": "$string:datepickerability_description",
        "label": "$string:entry_DatePickerAbility",
        "type": "page",
        "launchType": "standard"
      },
      {
        "orientation": "unspecified",
        "name": "com.artcool.first.component.directionlayout.DirectionLayoutAbility",
        "icon": "$media:icon",
        "description": "$string:directionlayoutability_description",
        "label": "$string:entry_DirectionLayoutAbility",
        "type": "page",
        "launchType": "standard"
      },
      {
        "orientation": "unspecified",
        "name": "com.artcool.first.component.dependentlayout.DependentLayout",
        "icon": "$media:icon",
        "description": "$string:dependentlayout_description",
        "label": "$string:entry_DependentLayout",
        "type": "page",
        "launchType": "standard"
      },
      {
        "orientation": "unspecified",
        "name": "com.artcool.first.component.stacklayout.StackLayoutAbility",
        "icon": "$media:icon",
        "description": "$string:stacklayoutability_description",
        "label": "$string:entry_StackLayoutAbility",
        "type": "page",
        "launchType": "standard"
      },
      {
        "orientation": "unspecified",
        "name": "com.artcool.first.component.tablelayout.TableLayoutAbility",
        "icon": "$media:icon",
        "description": "$string:tablelayoutability_description",
        "label": "$string:entry_TableLayoutAbility",
        "type": "page",
        "launchType": "standard"
      },
      {
        "orientation": "unspecified",
        "name": "com.artcool.first.component.componententry.ComponentEntryAbility",
        "icon": "$media:icon",
        "description": "$string:componententryability_description",
        "label": "$string:entry_ComponentEntryAbility",
        "type": "page",
        "launchType": "standard"
      }
    ]
  }
}